<?xml version="1.0" encoding="UTF-8" standalone="no"?>
<!-- Created with Inkscape (http://www.inkscape.org/) -->

<svg
   xmlns:dc="http://purl.org/dc/elements/1.1/"
   xmlns:cc="http://creativecommons.org/ns#"
   xmlns:rdf="http://www.w3.org/1999/02/22-rdf-syntax-ns#"
   xmlns:svg="http://www.w3.org/2000/svg"
   xmlns="http://www.w3.org/2000/svg"
   xmlns:xlink="http://www.w3.org/1999/xlink"
   xmlns:sodipodi="http://sodipodi.sourceforge.net/DTD/sodipodi-0.dtd"
   xmlns:inkscape="http://www.inkscape.org/namespaces/inkscape"
   width="210mm"
   height="297mm"
   id="svg2"
   version="1.1"
   inkscape:version="0.48.4 r9939"
   sodipodi:docname="boton_orbitar_camara.svg">
  <defs
     id="defs4">
    <linearGradient
       inkscape:collect="always"
       id="linearGradient3776">
      <stop
         style="stop-color:#000000;stop-opacity:0.46491228"
         offset="0"
         id="stop3778" />
      <stop
         style="stop-color:#006680;stop-opacity:0;"
         offset="1"
         id="stop3780" />
    </linearGradient>
    <linearGradient
       inkscape:collect="always"
       xlink:href="#linearGradient3776"
       id="linearGradient3782"
       x1="307.14285"
       y1="358.07648"
       x2="353.57144"
       y2="454.50504"
       gradientUnits="userSpaceOnUse" />
  </defs>
  <sodipodi:namedview
     id="base"
     pagecolor="#ffffff"
     bordercolor="#666666"
     borderopacity="1.0"
     inkscape:pageopacity="0.0"
     inkscape:pageshadow="2"
     inkscape:zoom="0.7"
     inkscape:cx="460.88587"
     inkscape:cy="851.42548"
     inkscape:document-units="px"
     inkscape:current-layer="layer1"
     showgrid="false"
     inkscape:window-width="1366"
     inkscape:window-height="705"
     inkscape:window-x="-8"
     inkscape:window-y="-8"
     inkscape:window-maximized="1" />
  <metadata
     id="metadata7">
    <rdf:RDF>
      <cc:Work
         rdf:about="">
        <dc:format>image/svg+xml</dc:format>
        <dc:type
           rdf:resource="http://purl.org/dc/dcmitype/StillImage" />
        <dc:title></dc:title>
      </cc:Work>
    </rdf:RDF>
  </metadata>
  <g
     inkscape:label="Capa 1"
     inkscape:groupmode="layer"
     id="layer1">
    <path
       sodipodi:type="arc"
       style="fill:#006680;fill-opacity:1;fill-rule:nonzero;stroke:#000000;stroke-width:0;stroke-linecap:round;stroke-linejoin:round;stroke-miterlimit:4;stroke-opacity:1;stroke-dasharray:none;stroke-dashoffset:0;opacity:0.5"
       id="path2985"
       sodipodi:cx="260"
       sodipodi:cy="269.50504"
       sodipodi:rx="231.42857"
       sodipodi:ry="231.42857"
       d="m 491.42857,269.50504 a 231.42857,231.42857 0 1 1 -462.857144,0 231.42857,231.42857 0 1 1 462.857144,0 z"
       inkscape:export-filename="C:\Appserver\www\threejs\applications\Project Games\FPS1\text3770.png"
       inkscape:export-xdpi="17.5"
       inkscape:export-ydpi="17.5" />
    <path
       style="opacity:0.5;fill:url(#linearGradient3782);fill-opacity:1;stroke:none"
       d="M 114.1124,355.46443 200,484.50504 340.71429,470.93361 429.28571,406.6479 476.42857,354.50504 435.65116,214.17761 c 0,0 -5.70353,82.87896 -22.07973,116.04171 -16.3762,33.16275 -25.17806,58.77175 -77.85715,85.71429 -52.67908,26.94255 -93.2199,26.9809 -143.57142,6.42857 -50.35152,-20.55234 -78.03046,-66.89775 -78.03046,-66.89775 z"
       id="path3774"
       inkscape:connector-curvature="0"
       sodipodi:nodetypes="cccccczzzc"
       inkscape:export-filename="C:\Appserver\www\threejs\applications\Project Games\FPS1\text3770.png"
       inkscape:export-xdpi="17.5"
       inkscape:export-ydpi="17.5" />
    <path
       d="M 479.82746,341.85885 A 231.42857,231.42857 0 1 1 374.90606,68.617547"
       sodipodi:ry="231.42857"
       sodipodi:rx="231.42857"
       sodipodi:cy="269.50504"
       sodipodi:cx="260"
       id="path2998"
       style="fill:none;stroke:#ffffff;stroke-width:62.13063503000000800;stroke-linecap:butt;stroke-linejoin:round;stroke-miterlimit:4;stroke-opacity:1;stroke-dasharray:none;stroke-dashoffset:0;opacity:0.5"
       sodipodi:type="arc"
       transform="matrix(0.6436568,0,0,0.6439528,91.996579,95.956515)"
       sodipodi:start="0.31797101"
       sodipodi:end="5.2319598"
       sodipodi:open="true"
       inkscape:export-filename="C:\Appserver\www\threejs\applications\Project Games\FPS1\text3770.png"
       inkscape:export-xdpi="17.5"
       inkscape:export-ydpi="17.5" />
    <path
       style="opacity:0.5;fill:#ffffff;stroke:none"
       d="m 344.62046,296.00034 92.29605,-83.23127 17.3055,123.61078 z"
       id="path3768"
       inkscape:connector-curvature="0"
       sodipodi:nodetypes="cccc"
       inkscape:export-filename="C:\Appserver\www\threejs\applications\Project Games\FPS1\text3770.png"
       inkscape:export-xdpi="17.5"
       inkscape:export-ydpi="17.5" />
    <text
       xml:space="preserve"
       style="font-size:85.57064819000000000px;font-style:normal;font-weight:normal;line-height:125%;letter-spacing:0px;word-spacing:0px;fill:#000000;fill-opacity:1;stroke:none;font-family:Sans;-inkscape-font-specification:Sans;opacity:0.5"
       x="178.59544"
       y="309.414"
       id="text3770"
       sodipodi:linespacing="125%"
       inkscape:export-xdpi="17.5"
       inkscape:export-ydpi="17.5"><tspan
         sodipodi:role="line"
         id="tspan3772"
         x="178.59544"
         y="309.414"
         style="font-size:128.35597229000001000px;font-weight:bold;fill:#ffffff;-inkscape-font-specification:Sans Bold">3D</tspan></text>
  </g>
</svg>
