{
    "uvs":[],
    "normals":[0.458831,0.39736,-0.794719,0.917663,0.39736,0,0.458831,0.39736,0.794719,-0.458832,0.39736,0.794719,-0.917663,0.39736,0,-0.458831,0.39736,-0.794719,-0.878545,0.47766,3.21244e-08,-0.439272,0.47766,0.760842,0.439272,0.47766,0.760842,0.878545,0.47766,3.21244e-08,-0.439272,0.47766,-0.760842,0.439272,0.47766,-0.760842,0.481277,-0.271091,-0.833596,-0.481277,-0.271091,-0.833596,0.962554,-0.271091,0,0.481277,-0.271091,0.833596,-0.481277,-0.271091,0.833596,-0.962554,-0.271091,0,0.439987,0.47502,-0.76208,-0.439988,0.47502,-0.76208,0.879975,0.47502,0,0.439987,0.47502,0.762081,-0.439988,0.47502,0.762081,-0.879975,0.47502,3.4252e-08,0.473536,-0.32102,-0.820189,-0.473536,-0.32102,-0.820189,0.947072,-0.32102,0,0.473536,-0.32102,0.820189,-0.473536,-0.32102,0.820189,-0.947072,-0.32102,1.14732e-07,0.0947364,-0.981886,-0.164088,-0.0947364,-0.981886,-0.164088,-0.0947364,-0.981886,0.164088,0.189473,-0.981886,1.38159e-08,-0.189473,-0.981886,0,0.0947364,-0.981886,0.164088,-0.325728,-0.758686,-0.564178,-0.325728,-0.758686,0.564178,0.651457,-0.758686,0,-0.651457,-0.758686,0,0.325728,-0.758686,0.564178,0.325728,-0.758686,-0.564178,-0.959778,-0.280759,0,-0,-1,0,0,-1,-0,0,-1,0,0,-1,0,0.479889,-0.280759,0.831192,0.479889,-0.280759,-0.831192,-0.479889,-0.280759,-0.831192,-0.479889,-0.280759,0.831192,0.959778,-0.280759,-1.67596e-07],
    "materials":[{
        "DbgColor":15658734,
        "specularCoef":50,
        "opacity":1,
        "colorDiffuse":[0.100879,0.64,0.0403393],
        "wireframe":false,
        "doubleSided":false,
        "visible":true,
        "DbgIndex":0,
        "colorEmissive":[0,0,0],
        "depthTest":true,
        "depthWrite":true,
        "colorSpecular":[0.5,0.5,0.5],
        "shading":"phong",
        "blending":1,
        "transparent":false,
        "DbgName":"Material.001"
    },{
        "DbgColor":15597568,
        "specularCoef":50,
        "opacity":1,
        "colorDiffuse":[0.328751,0.121468,0.0205504],
        "wireframe":false,
        "doubleSided":false,
        "visible":true,
        "DbgIndex":1,
        "colorEmissive":[0,0,0],
        "depthTest":true,
        "depthWrite":true,
        "colorSpecular":[0.5,0.5,0.5],
        "shading":"phong",
        "blending":1,
        "transparent":false,
        "DbgName":"Material.002"
    }],
    "faces":[34,0,1,2,0,0,0,0,34,2,1,3,0,1,1,1,34,3,1,4,0,2,2,2,34,4,1,5,0,3,3,3,34,5,1,6,0,4,4,4,34,6,1,0,0,5,5,5,35,27,25,12,11,0,6,6,6,6,35,28,27,11,10,0,7,7,7,7,35,29,28,10,9,0,8,8,8,8,35,30,29,9,8,0,9,9,9,9,35,25,26,7,12,0,10,10,10,10,35,26,30,8,7,0,11,11,11,11,35,0,2,17,18,0,12,12,12,12,35,6,0,18,14,0,13,13,13,13,35,2,3,16,17,0,14,14,14,14,35,3,4,15,16,0,15,15,15,15,35,4,5,13,15,0,16,16,16,16,35,5,6,14,13,0,17,17,17,17,35,18,17,24,20,0,18,18,18,18,35,14,18,20,19,0,19,19,19,19,35,17,16,23,24,0,20,20,20,20,35,16,15,22,23,0,21,21,21,21,35,15,13,21,22,0,22,22,22,22,35,13,14,19,21,0,23,23,23,23,35,20,24,30,26,0,24,24,24,24,35,19,20,26,25,0,25,25,25,25,35,24,23,29,30,0,26,26,26,26,35,23,22,28,29,0,27,27,27,27,35,22,21,27,28,0,28,28,28,28,35,21,19,25,27,0,29,29,29,29,35,7,8,32,31,0,30,30,30,30,35,12,7,31,36,0,31,31,31,31,35,10,11,35,34,0,32,32,32,32,35,8,9,33,32,0,33,33,33,33,35,11,12,36,35,0,34,34,34,34,35,9,10,34,33,0,35,35,35,35,35,36,31,37,42,1,36,36,36,36,35,34,35,41,40,1,37,37,37,37,35,32,33,39,38,1,38,38,38,38,35,35,36,42,41,1,39,39,39,39,35,33,34,40,39,1,40,40,40,40,35,31,32,38,37,1,41,41,41,41,35,41,42,48,47,1,42,42,42,42,34,48,43,44,1,43,43,43,34,44,45,46,1,44,44,44,34,46,47,48,1,45,45,45,34,44,46,48,1,46,46,46,35,39,40,46,45,1,47,47,47,47,35,37,38,44,43,1,48,48,48,48,35,42,37,43,48,1,49,49,49,49,35,40,41,47,46,1,50,50,50,50,35,38,39,45,44,1,51,51,51,51],
    "metadata":{
        "normals":52,
        "generator":"io_three",
        "faces":52,
        "version":3,
        "type":"Geometry",
        "materials":2,
        "uvs":0,
        "vertices":49
    },
    "vertices":[0,2.25348,-0.731899,0,3.71728,-1.62487e-07,0.633843,2.25348,-0.36595,0.633843,2.25348,0.365949,-6.39846e-08,2.25348,0.731899,-0.633843,2.25348,0.365949,-0.633843,2.25348,-0.365949,0,-0.0412854,-1.81139,1.56871,-0.0412853,-0.905694,1.56871,-0.0412853,0.905695,-1.58357e-07,-0.0412852,1.81139,-1.56871,-0.0412853,0.905694,-1.56871,-0.0412853,-0.905694,-0.589556,2.09623,0.34038,-0.589556,2.09623,-0.34038,-6.23076e-08,2.09623,0.680761,0.589556,2.09623,0.34038,0.589556,2.09623,-0.340381,-2.79361e-09,2.09623,-0.680761,-1.03124,1.27802,-0.595385,0,1.27802,-1.19077,-1.03124,1.27802,0.595385,-1.041e-07,1.27802,1.19077,1.03124,1.27802,0.595385,1.03124,1.27802,-0.595385,-0.96218,1.07428,-0.555515,-9.82263e-09,1.07428,-1.11103,-0.96218,1.07428,0.555515,-1.06952e-07,1.07428,1.11103,0.96218,1.07428,0.555515,0.96218,1.07428,-0.555515,-1.78291e-08,-0.191249,-0.914022,0.791566,-0.191249,-0.457011,0.791566,-0.191249,0.457011,-9.77354e-08,-0.191249,0.914022,-0.791567,-0.191249,0.457011,-0.791567,-0.191249,-0.457011,-4.9549e-08,-0.589404,-0.378598,0.327875,-0.589404,-0.189299,0.327875,-0.589404,0.189299,-8.26471e-08,-0.589404,0.378598,-0.327875,-0.589404,0.189299,-0.327875,-0.589404,-0.189299,-7.20939e-08,-1.21452,-0.167448,0.145014,-1.21452,-0.0837241,0.145014,-1.21452,0.0837242,-8.67327e-08,-1.21452,0.167448,-0.145015,-1.21452,0.0837242,-0.145015,-1.21452,-0.0837241]
}