{
    "normals":[0,1,-4.37114e-08,0,1,-4.37114e-08,0,1,-4.37114e-08,0,1,-4.37114e-08],
    "materials":[{
        "specularCoef":50,
        "wireframe":false,
        "colorEmissive":[0,0,0],
        "transparent":false,
        "DbgName":"Material.001",
        "depthTest":true,
        "blending":1,
        "colorSpecular":[0.5,0.5,0.5],
        "DbgColor":15658734,
        "visible":true,
        "DbgIndex":0,
        "opacity":1,
        "depthWrite":true,
        "shading":"phong",
        "colorDiffuse":[0.00216171,0.568675,0.64],
        "vertexColors":false,
        "doubleSided":false
    },{
        "specularCoef":50,
        "wireframe":false,
        "colorEmissive":[0,0,0],
        "transparent":false,
        "DbgName":"Material.002",
        "depthTest":true,
        "blending":1,
        "colorSpecular":[0.5,0.5,0.5],
        "DbgColor":15597568,
        "visible":true,
        "DbgIndex":1,
        "opacity":1,
        "depthWrite":true,
        "shading":"phong",
        "colorDiffuse":[0.64,0.488547,0.352654],
        "vertexColors":false,
        "doubleSided":false
    }],
    "metadata":{
        "uvs":0,
        "generator":"io_three",
        "normals":4,
        "type":"Geometry",
        "vertices":289,
        "materials":2,
        "faces":256,
        "colors":0,
        "version":3
    },
    "vertices":[-8,3.49691e-07,8,8,3.49691e-07,8,-8,-3.49691e-07,-8,8,-3.49691e-07,-8,-8,-3.0598e-07,-7,-8,-2.62268e-07,-6,-8,-2.18557e-07,-5,-8,-1.74846e-07,-4,-8,-1.31134e-07,-3,-8,-8.74228e-08,-2,-8,-4.37114e-08,-1,-8,0,0,-8,4.37114e-08,1,-8,8.74228e-08,2,-8,1.31134e-07,3,-8,1.74846e-07,4,-8,2.18557e-07,5,-8,2.62268e-07,6,-8,3.0598e-07,7,8,3.0598e-07,7,8,2.62268e-07,6,8,2.18557e-07,5,8,1.74846e-07,4,8,1.31134e-07,3,8,8.74228e-08,2,8,4.37114e-08,1,8,0,0,8,-4.37114e-08,-1,8,-8.74228e-08,-2,8,-1.31134e-07,-3,8,-1.74846e-07,-4,8,-2.18557e-07,-5,8,-2.62268e-07,-6,8,-3.0598e-07,-7,-7,3.49691e-07,8,-6,3.49691e-07,8,-5,3.49691e-07,8,-4,3.49691e-07,8,-3,3.49691e-07,8,-2,3.49691e-07,8,-1,3.49691e-07,8,0,3.49691e-07,8,1,3.49691e-07,8,2,3.49691e-07,8,3,3.49691e-07,8,4,3.49691e-07,8,5,3.49691e-07,8,6,3.49691e-07,8,7,3.49691e-07,8,7,-3.49691e-07,-8,6,-3.49691e-07,-8,5,-3.49691e-07,-8,4,-3.49691e-07,-8,3,-3.49691e-07,-8,2,-3.49691e-07,-8,1,-3.49691e-07,-8,0,-3.49691e-07,-8,-1,-3.49691e-07,-8,-2,-3.49691e-07,-8,-3,-3.49691e-07,-8,-4,-3.49691e-07,-8,-5,-3.49691e-07,-8,-6,-3.49691e-07,-8,-7,-3.49691e-07,-8,7,3.0598e-07,7,6,3.0598e-07,7,5,3.0598e-07,7,4,3.0598e-07,7,3,3.0598e-07,7,2,3.0598e-07,7,1,3.0598e-07,7,0,3.0598e-07,7,-1,3.0598e-07,7,-2,3.0598e-07,7,-3,3.0598e-07,7,-4,3.0598e-07,7,-5,3.0598e-07,7,-6,3.0598e-07,7,-7,3.0598e-07,7,7,2.62268e-07,6,6,2.62268e-07,6,5,2.62268e-07,6,4,2.62268e-07,6,3,2.62268e-07,6,2,2.62268e-07,6,1,2.62268e-07,6,0,2.62268e-07,6,-1,2.62268e-07,6,-2,2.62268e-07,6,-3,2.62268e-07,6,-4,2.62268e-07,6,-5,2.62268e-07,6,-6,2.62268e-07,6,-7,2.62268e-07,6,7,2.18557e-07,5,6,2.18557e-07,5,5,2.18557e-07,5,4,2.18557e-07,5,3,2.18557e-07,5,2,2.18557e-07,5,1,2.18557e-07,5,0,2.18557e-07,5,-1,2.18557e-07,5,-2,2.18557e-07,5,-3,2.18557e-07,5,-4,2.18557e-07,5,-5,2.18557e-07,5,-6,2.18557e-07,5,-7,2.18557e-07,5,7,1.74846e-07,4,6,1.74846e-07,4,5,1.74846e-07,4,4,1.74846e-07,4,3,1.74846e-07,4,2,1.74846e-07,4,1,1.74846e-07,4,0,1.74846e-07,4,-1,1.74846e-07,4,-2,1.74846e-07,4,-3,1.74846e-07,4,-4,1.74846e-07,4,-5,1.74846e-07,4,-6,1.74846e-07,4,-7,1.74846e-07,4,7,1.31134e-07,3,6,1.31134e-07,3,5,1.31134e-07,3,4,1.31134e-07,3,3,1.31134e-07,3,2,1.31134e-07,3,1,1.31134e-07,3,0,1.31134e-07,3,-1,1.31134e-07,3,-2,1.31134e-07,3,-3,1.31134e-07,3,-4,1.31134e-07,3,-5,1.31134e-07,3,-6,1.31134e-07,3,-7,1.31134e-07,3,7,8.74228e-08,2,6,8.74228e-08,2,5,8.74228e-08,2,4,8.74228e-08,2,3,8.74228e-08,2,2,8.74228e-08,2,1,8.74228e-08,2,0,8.74228e-08,2,-1,8.74228e-08,2,-2,8.74228e-08,2,-3,8.74228e-08,2,-4,8.74228e-08,2,-5,8.74228e-08,2,-6,8.74228e-08,2,-7,8.74228e-08,2,7,4.37114e-08,1,6,4.37114e-08,1,5,4.37114e-08,1,4,4.37114e-08,1,3,4.37114e-08,1,2,4.37114e-08,1,1,4.37114e-08,1,0,4.37114e-08,1,-1,4.37114e-08,1,-2,4.37114e-08,1,-3,4.37114e-08,1,-4,4.37114e-08,1,-5,4.37114e-08,1,-6,4.37114e-08,1,-7,4.37114e-08,1,7,0,0,6,0,0,5,0,0,4,0,0,3,0,0,2,0,0,1,0,0,0,0,0,-1,0,0,-2,0,0,-3,0,0,-4,0,0,-5,0,0,-6,0,0,-7,0,0,7,-4.37114e-08,-1,6,-4.37114e-08,-1,5,-4.37114e-08,-1,4,-4.37114e-08,-1,3,-4.37114e-08,-1,2,-4.37114e-08,-1,1,-4.37114e-08,-1,0,-4.37114e-08,-1,-1,-4.37114e-08,-1,-2,-4.37114e-08,-1,-3,-4.37114e-08,-1,-4,-4.37114e-08,-1,-5,-4.37114e-08,-1,-6,-4.37114e-08,-1,-7,-4.37114e-08,-1,7,-8.74228e-08,-2,6,-8.74228e-08,-2,5,-8.74228e-08,-2,4,-8.74228e-08,-2,3,-8.74228e-08,-2,2,-8.74228e-08,-2,1,-8.74228e-08,-2,0,-8.74228e-08,-2,-1,-8.74228e-08,-2,-2,-8.74228e-08,-2,-3,-8.74228e-08,-2,-4,-8.74228e-08,-2,-5,-8.74228e-08,-2,-6,-8.74228e-08,-2,-7,-8.74228e-08,-2,7,-1.31134e-07,-3,6,-1.31134e-07,-3,5,-1.31134e-07,-3,4,-1.31134e-07,-3,3,-1.31134e-07,-3,2,-1.31134e-07,-3,1,-1.31134e-07,-3,0,-1.31134e-07,-3,-1,-1.31134e-07,-3,-2,-1.31134e-07,-3,-3,-1.31134e-07,-3,-4,-1.31134e-07,-3,-5,-1.31134e-07,-3,-6,-1.31134e-07,-3,-7,-1.31134e-07,-3,7,-1.74846e-07,-4,6,-1.74846e-07,-4,5,-1.74846e-07,-4,4,-1.74846e-07,-4,3,-1.74846e-07,-4,2,-1.74846e-07,-4,1,-1.74846e-07,-4,0,-1.74846e-07,-4,-1,-1.74846e-07,-4,-2,-1.74846e-07,-4,-3,-1.74846e-07,-4,-4,-1.74846e-07,-4,-5,-1.74846e-07,-4,-6,-1.74846e-07,-4,-7,-1.74846e-07,-4,7,-2.18557e-07,-5,6,-2.18557e-07,-5,5,-2.18557e-07,-5,4,-2.18557e-07,-5,3,-2.18557e-07,-5,2,-2.18557e-07,-5,1,-2.18557e-07,-5,0,-2.18557e-07,-5,-1,-2.18557e-07,-5,-2,-2.18557e-07,-5,-3,-2.18557e-07,-5,-4,-2.18557e-07,-5,-5,-2.18557e-07,-5,-6,-2.18557e-07,-5,-7,-2.18557e-07,-5,7,-2.62268e-07,-6,6,-2.62268e-07,-6,5,-2.62268e-07,-6,4,-2.62268e-07,-6,3,-2.62268e-07,-6,2,-2.62268e-07,-6,1,-2.62268e-07,-6,0,-2.62268e-07,-6,-1,-2.62268e-07,-6,-2,-2.62268e-07,-6,-3,-2.62268e-07,-6,-4,-2.62268e-07,-6,-5,-2.62268e-07,-6,-6,-2.62268e-07,-6,-7,-2.62268e-07,-6,7,-3.0598e-07,-7,6,-3.0598e-07,-7,5,-3.0598e-07,-7,4,-3.0598e-07,-7,3,-3.0598e-07,-7,2,-3.0598e-07,-7,1,-3.0598e-07,-7,0,-3.0598e-07,-7,-1,-3.0598e-07,-7,-2,-3.0598e-07,-7,-3,-3.0598e-07,-7,-4,-3.0598e-07,-7,-5,-3.0598e-07,-7,-6,-3.0598e-07,-7,-7,-3.0598e-07,-7],
    "uvs":[],
    "faces":[35,274,33,3,49,0,0,0,0,0,35,48,1,19,64,1,0,0,0,0,35,64,19,20,79,0,0,0,0,0,35,79,20,21,94,1,1,1,1,1,35,94,21,22,109,0,0,0,0,0,35,109,22,23,124,1,0,0,0,0,35,124,23,24,139,0,2,2,2,2,35,139,24,25,154,1,3,3,3,3,35,154,25,26,169,0,3,3,3,3,35,169,26,27,184,1,3,3,3,3,35,184,27,28,199,0,3,3,3,3,35,199,28,29,214,1,2,2,2,2,35,214,29,30,229,0,0,0,0,0,35,229,30,31,244,1,0,0,0,0,35,244,31,32,259,0,1,1,1,1,35,259,32,33,274,1,0,0,0,0,35,5,273,288,4,0,0,0,0,0,35,273,272,287,288,1,0,0,0,0,35,272,271,286,287,0,0,0,0,0,35,271,270,285,286,1,0,0,0,0,35,270,269,284,285,0,0,0,0,0,35,269,268,283,284,1,0,0,0,0,35,268,267,282,283,0,0,0,0,0,35,267,266,281,282,1,0,0,0,0,35,266,265,280,281,0,0,0,0,0,35,265,264,279,280,1,0,0,0,0,35,264,263,278,279,0,0,0,0,0,35,263,262,277,278,1,0,0,0,0,35,262,261,276,277,0,0,0,0,0,35,261,260,275,276,1,0,0,0,0,35,260,259,274,275,0,0,0,0,0,35,6,258,273,5,1,1,1,1,1,35,258,257,272,273,0,1,1,1,1,35,257,256,271,272,1,1,1,1,1,35,256,255,270,271,0,1,1,1,1,35,255,254,269,270,1,1,1,1,1,35,254,253,268,269,0,1,1,1,1,35,253,252,267,268,1,1,1,1,1,35,252,251,266,267,0,1,1,1,1,35,251,250,265,266,1,1,1,1,1,35,250,249,264,265,0,1,1,1,1,35,249,248,263,264,1,1,1,1,1,35,248,247,262,263,0,1,1,1,1,35,247,246,261,262,1,1,1,1,1,35,246,245,260,261,0,1,1,1,1,35,245,244,259,260,1,1,1,1,1,35,7,243,258,6,0,0,0,0,0,35,243,242,257,258,1,0,0,0,0,35,242,241,256,257,0,0,0,0,0,35,241,240,255,256,1,0,0,0,0,35,240,239,254,255,0,0,0,0,0,35,239,238,253,254,1,0,0,0,0,35,238,237,252,253,0,0,0,0,0,35,237,236,251,252,1,0,0,0,0,35,236,235,250,251,0,0,0,0,0,35,235,234,249,250,1,0,0,0,0,35,234,233,248,249,0,0,0,0,0,35,233,232,247,248,1,0,0,0,0,35,232,231,246,247,0,0,0,0,0,35,231,230,245,246,1,0,0,0,0,35,230,229,244,245,0,0,0,0,0,35,8,228,243,7,1,0,0,0,0,35,228,227,242,243,0,0,0,0,0,35,227,226,241,242,1,0,0,0,0,35,226,225,240,241,0,0,0,0,0,35,225,224,239,240,1,0,0,0,0,35,224,223,238,239,0,0,0,0,0,35,223,222,237,238,1,0,0,0,0,35,222,221,236,237,0,0,0,0,0,35,221,220,235,236,1,0,0,0,0,35,220,219,234,235,0,0,0,0,0,35,219,218,233,234,1,0,0,0,0,35,218,217,232,233,0,0,0,0,0,35,217,216,231,232,1,0,0,0,0,35,216,215,230,231,0,0,0,0,0,35,215,214,229,230,1,0,0,0,0,35,9,213,228,8,0,2,2,2,2,35,213,212,227,228,1,2,2,2,2,35,212,211,226,227,0,2,2,2,2,35,211,210,225,226,1,2,2,2,2,35,210,209,224,225,0,2,2,2,2,35,209,208,223,224,1,2,2,2,2,35,208,207,222,223,0,2,2,2,2,35,207,206,221,222,1,2,2,2,2,35,206,205,220,221,0,2,2,2,2,35,205,204,219,220,1,2,2,2,2,35,204,203,218,219,0,2,2,2,2,35,203,202,217,218,1,2,2,2,2,35,202,201,216,217,0,2,2,2,2,35,201,200,215,216,1,2,2,2,2,35,200,199,214,215,0,2,2,2,2,35,10,198,213,9,1,3,3,3,3,35,198,197,212,213,0,3,3,3,3,35,197,196,211,212,1,3,3,3,3,35,196,195,210,211,0,3,3,3,3,35,195,194,209,210,1,3,3,3,3,35,194,193,208,209,0,3,3,3,3,35,193,192,207,208,1,3,3,3,3,35,192,191,206,207,0,3,3,3,3,35,191,190,205,206,1,3,3,3,3,35,190,189,204,205,0,3,3,3,3,35,189,188,203,204,1,3,3,3,3,35,188,187,202,203,0,3,3,3,3,35,187,186,201,202,1,3,3,3,3,35,186,185,200,201,0,3,3,3,3,35,185,184,199,200,1,3,3,3,3,35,11,183,198,10,0,3,3,3,3,35,183,182,197,198,1,3,3,3,3,35,182,181,196,197,0,3,3,3,3,35,181,180,195,196,1,3,3,3,3,35,180,179,194,195,0,3,3,3,3,35,179,178,193,194,1,3,3,3,3,35,178,177,192,193,0,3,3,3,3,35,177,176,191,192,1,3,3,3,3,35,176,175,190,191,0,3,3,3,3,35,175,174,189,190,1,3,3,3,3,35,174,173,188,189,0,3,3,3,3,35,173,172,187,188,1,3,3,3,3,35,172,171,186,187,0,3,3,3,3,35,171,170,185,186,1,3,3,3,3,35,170,169,184,185,0,3,3,3,3,35,12,168,183,11,1,3,3,3,3,35,168,167,182,183,0,3,3,3,3,35,167,166,181,182,1,3,3,3,3,35,166,165,180,181,0,3,3,3,3,35,165,164,179,180,1,3,3,3,3,35,164,163,178,179,0,3,3,3,3,35,163,162,177,178,1,3,3,3,3,35,162,161,176,177,0,3,3,3,3,35,161,160,175,176,1,3,3,3,3,35,160,159,174,175,0,3,3,3,3,35,159,158,173,174,1,3,3,3,3,35,158,157,172,173,0,3,3,3,3,35,157,156,171,172,1,3,3,3,3,35,156,155,170,171,0,3,3,3,3,35,155,154,169,170,1,3,3,3,3,35,13,153,168,12,0,3,3,3,3,35,153,152,167,168,1,3,3,3,3,35,152,151,166,167,0,3,3,3,3,35,151,150,165,166,1,3,3,3,3,35,150,149,164,165,0,3,3,3,3,35,149,148,163,164,1,3,3,3,3,35,148,147,162,163,0,3,3,3,3,35,147,146,161,162,1,3,3,3,3,35,146,145,160,161,0,3,3,3,3,35,145,144,159,160,1,3,3,3,3,35,144,143,158,159,0,3,3,3,3,35,143,142,157,158,1,3,3,3,3,35,142,141,156,157,0,3,3,3,3,35,141,140,155,156,1,3,3,3,3,35,140,139,154,155,0,3,3,3,3,35,14,138,153,13,1,2,2,2,2,35,138,137,152,153,0,2,2,2,2,35,137,136,151,152,1,2,2,2,2,35,136,135,150,151,0,2,2,2,2,35,135,134,149,150,1,2,2,2,2,35,134,133,148,149,0,2,2,2,2,35,133,132,147,148,1,2,2,2,2,35,132,131,146,147,0,2,2,2,2,35,131,130,145,146,1,2,2,2,2,35,130,129,144,145,0,2,2,2,2,35,129,128,143,144,1,2,2,2,2,35,128,127,142,143,0,2,2,2,2,35,127,126,141,142,1,2,2,2,2,35,126,125,140,141,0,2,2,2,2,35,125,124,139,140,1,2,2,2,2,35,15,123,138,14,0,0,0,0,0,35,123,122,137,138,1,0,0,0,0,35,122,121,136,137,0,0,0,0,0,35,121,120,135,136,1,0,0,0,0,35,120,119,134,135,0,0,0,0,0,35,119,118,133,134,1,0,0,0,0,35,118,117,132,133,0,0,0,0,0,35,117,116,131,132,1,0,0,0,0,35,116,115,130,131,0,0,0,0,0,35,115,114,129,130,1,0,0,0,0,35,114,113,128,129,0,0,0,0,0,35,113,112,127,128,1,0,0,0,0,35,112,111,126,127,0,0,0,0,0,35,111,110,125,126,1,0,0,0,0,35,110,109,124,125,0,0,0,0,0,35,16,108,123,15,1,0,0,0,0,35,108,107,122,123,0,0,0,0,0,35,107,106,121,122,1,0,0,0,0,35,106,105,120,121,0,0,0,0,0,35,105,104,119,120,1,0,0,0,0,35,104,103,118,119,0,0,0,0,0,35,103,102,117,118,1,0,0,0,0,35,102,101,116,117,0,0,0,0,0,35,101,100,115,116,1,0,0,0,0,35,100,99,114,115,0,0,0,0,0,35,99,98,113,114,1,0,0,0,0,35,98,97,112,113,0,0,0,0,0,35,97,96,111,112,1,0,0,0,0,35,96,95,110,111,0,0,0,0,0,35,95,94,109,110,1,0,0,0,0,35,17,93,108,16,0,1,1,1,1,35,93,92,107,108,1,1,1,1,1,35,92,91,106,107,0,1,1,1,1,35,91,90,105,106,1,1,1,1,1,35,90,89,104,105,0,1,1,1,1,35,89,88,103,104,1,1,1,1,1,35,88,87,102,103,0,1,1,1,1,35,87,86,101,102,1,1,1,1,1,35,86,85,100,101,0,1,1,1,1,35,85,84,99,100,1,1,1,1,1,35,84,83,98,99,0,1,1,1,1,35,83,82,97,98,1,1,1,1,1,35,82,81,96,97,0,1,1,1,1,35,81,80,95,96,1,1,1,1,1,35,80,79,94,95,0,1,1,1,1,35,18,78,93,17,1,0,0,0,0,35,78,77,92,93,0,0,0,0,0,35,77,76,91,92,1,0,0,0,0,35,76,75,90,91,0,0,0,0,0,35,75,74,89,90,1,0,0,0,0,35,74,73,88,89,0,0,0,0,0,35,73,72,87,88,1,0,0,0,0,35,72,71,86,87,0,0,0,0,0,35,71,70,85,86,1,0,0,0,0,35,70,69,84,85,0,0,0,0,0,35,69,68,83,84,1,0,0,0,0,35,68,67,82,83,0,0,0,0,0,35,67,66,81,82,1,0,0,0,0,35,66,65,80,81,0,0,0,0,0,35,65,64,79,80,1,0,0,0,0,35,0,34,78,18,0,0,0,0,0,35,34,35,77,78,1,0,0,0,0,35,35,36,76,77,0,0,0,0,0,35,36,37,75,76,1,0,0,0,0,35,37,38,74,75,0,0,0,0,0,35,38,39,73,74,1,0,0,0,0,35,39,40,72,73,0,0,0,0,0,35,40,41,71,72,1,0,0,0,0,35,41,42,70,71,0,0,0,0,0,35,42,43,69,70,1,0,0,0,0,35,43,44,68,69,0,0,0,0,0,35,44,45,67,68,1,0,0,0,0,35,45,46,66,67,0,0,0,0,0,35,46,47,65,66,1,0,0,0,0,35,47,48,64,65,0,0,0,0,0,35,4,288,63,2,1,0,0,0,0,35,288,287,62,63,0,0,0,0,0,35,287,286,61,62,1,0,0,0,0,35,286,285,60,61,0,0,0,0,0,35,285,284,59,60,1,0,0,0,0,35,284,283,58,59,0,0,0,0,0,35,283,282,57,58,1,0,0,0,0,35,282,281,56,57,0,0,0,0,0,35,281,280,55,56,1,0,0,0,0,35,280,279,54,55,0,0,0,0,0,35,279,278,53,54,1,0,0,0,0,35,278,277,52,53,0,0,0,0,0,35,277,276,51,52,1,0,0,0,0,35,276,275,50,51,0,0,0,0,0,35,275,274,49,50,1,0,0,0,0],
    "colors":[]
}